<?xml version="1.0" encoding="utf-8"?><!--Generator: Adobe Illustrator 18.1.1, SVG Export Plug-In . SVG Version: 6.00 Build 0)--><svg version="1.1" id="Layer_1" xmlns="http://www.w3.org/2000/svg" xmlns:xlink="http://www.w3.org/1999/xlink" x="0px" y="0px" viewBox="0 0 45 45" enable-background="new 0 0 45 45" xml:space="preserve"><g display="none"><rect display="inline" fill-rule="evenodd" clip-rule="evenodd" fill="#DD4B39" width="45" height="45"/><path display="inline" fill="#FFFFFF" d="M21.9,12.2c0.2,0.1,0.4,0.3,0.7,0.5c0.2,0.2,0.5,0.5,0.7,0.9c0.2,0.3,0.4,0.7,0.6,1.2
		c0.1,0.5,0.2,1,0.2,1.6c0,1.1-0.3,2-0.7,2.7c-0.2,0.3-0.5,0.6-0.7,0.9c-0.3,0.3-0.6,0.6-0.9,0.8c-0.2,0.2-0.4,0.4-0.5,0.7
		c-0.2,0.3-0.3,0.5-0.3,0.9c0,0.3,0.1,0.6,0.3,0.8c0.2,0.2,0.3,0.4,0.5,0.5l1.1,0.9c0.7,0.5,1.2,1.1,1.7,1.8
		c0.5,0.7,0.7,1.5,0.7,2.6c0,1.5-0.7,2.8-2,4c-1.4,1.2-3.4,1.8-6,1.9c-2.2,0-3.8-0.5-4.9-1.4c-1.1-0.8-1.6-1.9-1.6-3
		c0-0.6,0.2-1.2,0.5-1.9c0.3-0.7,1-1.3,1.9-1.9c1-0.6,2.1-1,3.2-1.2c1.1-0.2,2-0.3,2.7-0.3c-0.2-0.3-0.4-0.6-0.6-0.9
		C18.1,23.8,18,23.4,18,23c0-0.3,0-0.5,0.1-0.7c0.1-0.2,0.1-0.4,0.2-0.5c-0.4,0-0.7,0.1-1,0.1c-1.7,0-2.9-0.5-3.8-1.6
		c-0.9-1-1.4-2.1-1.4-3.3c0-1.5,0.6-2.9,1.9-4.2c0.9-0.7,1.8-1.2,2.7-1.4c0.9-0.2,1.8-0.3,2.6-0.3h6.2l-1.9,1.1H21.9z M23.1,30.1
		c0-0.8-0.3-1.5-0.8-2.1c-0.5-0.6-1.4-1.2-2.5-2.1c-0.2,0-0.4,0-0.7,0c-0.2,0-0.6,0-1.2,0.1c-0.6,0.1-1.3,0.2-2,0.4
		c-0.2,0.1-0.4,0.2-0.7,0.3c-0.3,0.1-0.6,0.3-0.9,0.6c-0.3,0.3-0.5,0.6-0.7,0.9c-0.2,0.4-0.3,0.9-0.3,1.4c0,1.1,0.5,2,1.5,2.7
		c0.9,0.7,2.2,1.1,3.9,1.1c1.5,0,2.6-0.3,3.3-1C22.7,31.9,23.1,31.1,23.1,30.1z M18.8,21c0.8,0,1.5-0.3,2-0.9
		c0.3-0.4,0.4-0.8,0.5-1.2c0-0.4,0.1-0.8,0.1-1.1c0-1.2-0.3-2.5-0.9-3.7c-0.3-0.6-0.7-1.1-1.2-1.5c-0.5-0.4-1.1-0.5-1.7-0.6
		c-0.8,0-1.5,0.4-2.1,1c-0.5,0.7-0.7,1.5-0.7,2.3c0,1.1,0.3,2.3,1,3.5c0.3,0.6,0.7,1.1,1.2,1.4C17.5,20.8,18.1,21,18.8,21z"/><path display="inline" fill="#FFFFFF" d="M35.2,20.9h-3.3v-3.3h-1.6v3.3H27v1.6h3.3v3.3h1.6v-3.3h3.3V20.9z"/></g><g><rect fill="#5EA9DD" width="45" height="45"/><path fill="#FFFFFF" d="M31.4,17.9c0,0.2,0,0.4,0,0.6c0,6.1-4.6,13.1-13.1,13.1c-2.6,0-5-0.8-7-2.1c0.4,0,0.7,0.1,1.1,0.1
		c2.2,0,4.1-0.7,5.7-2c-2,0-3.7-1.4-4.3-3.2c0.3,0.1,0.6,0.1,0.9,0.1c0.4,0,0.8-0.1,1.2-0.2c-2.1-0.4-3.7-2.3-3.7-4.5c0,0,0,0,0-0.1
		c0.6,0.3,1.3,0.6,2.1,0.6c-1.2-0.8-2-2.2-2-3.8c0-0.8,0.2-1.6,0.6-2.3c2.3,2.8,5.7,4.6,9.5,4.8c-0.1-0.3-0.1-0.7-0.1-1
		c0-2.5,2.1-4.6,4.6-4.6c1.3,0,2.5,0.6,3.4,1.4c1-0.2,2-0.6,2.9-1.1c-0.3,1.1-1.1,2-2,2.5c0.9-0.1,1.8-0.4,2.6-0.7
		C33.1,16.5,32.3,17.3,31.4,17.9z"/></g><g display="none"><rect display="inline" fill="#3B5998" width="45" height="45"/><path display="inline" fill="#FFFFFF" d="M25,38V26h-4v-4h4v-3.5c0-3.7,1.8-5.7,5.1-5.7c1.6,0,2.9,0.1,2.9,0.2v3.9l-2.1,0
		c-1.8,0-1.9,0.9-1.9,2.1V22h3.9l-0.6,4H29v12H25z"/></g><g display="none"><rect display="inline" fill="#EF7016" width="45" height="45"/><path display="inline" fill="#FFFFFF" d="M11.6,11.6V15C21.8,15,30,23.2,30,33.4h3.4C33.4,21.4,23.6,11.6,11.6,11.6z M11.6,18.4
		v3.4c6.4,0,11.7,5.2,11.7,11.7h3.4C26.6,25.1,19.9,18.4,11.6,18.4z M14.8,26.9c-1.8,0-3.3,1.5-3.3,3.3c0,1.8,1.5,3.3,3.3,3.3
		s3.3-1.5,3.3-3.3S16.6,26.9,14.8,26.9z"/></g></svg>